{
  "sidebarRoutes": [
    {
      "id": "10",
      "path": "/",
      "stateKey": "requestsPerMinute",
      "title": "Requests per minute over the entire time span",
      "requestPath": "/get-by-minutes/29/23",
      "chartType": "LineChart"
    },
    {
      "id": "20",
      "path": "/methods-view",
      "stateKey": "methods",
      "title": "Distribution of HTTP methods",
      "requestPath": "/get-by-methods",
      "chartType": "PieChart"
    },
    {
      "id": "30",
      "path": "/response-codes-view",
      "stateKey": "statusCodes",
      "title": "Distribution of HTTP answer codes",
      "requestPath": "/get-by-response-codes",
      "chartType": "PieChart"
    },
    {
      "id": "40",
      "path": "/successfull-responses-view",
      "stateKey": "successResponses",
      "title": "Distribution of responses with status code 200 and size less than 1000b",
      "requestPath": "/get-by-size-and-200-response-code",
      "chartType": "BarChart"
    }
  ]
}
