{
  "buttons": [
    {
      "title": "Requests per minute",
      "type": "button",
      "args": ["/"],
      "id": "1",
      "classes": ["sidebar-button"]
    },
    {
      "title": "HTTP methods",
      "type": "button",
      "args": ["/methods-view"],
      "id": "2",
      "classes": ["sidebar-button"]
    },
    {
      "title": "Status codes",
      "type": "button",
      "args": ["/response-codes-view"],
      "id": "3",
      "classes": ["sidebar-button"]
    },
    {
      "title": "Successful responses",
      "type": "button",
      "args": ["/successfull-responses-view"],
      "id": "4",
      "classes": ["sidebar-button"]
    }
  ]
}
